eds213_data_cleaning_assign_KATEBECKER
…
Use the relationship between the three cover columns (Snow, Water, Land) to infer missing values where possible and recompute the Total_cover column

Recomputing

# change land_cover variable from character to a numeric 
snow_processed$Land_cover <- as.numeric(snow_processed$Land_cover)

# Calculate row-wise means for columns Land_cover, Snow_cover, and Water_cover
snow_processed <- snow_processed %>%
  mutate(TotalCov = rowMeans(select(., Land_cover, Snow_cover, Water_cover), na.rm = TRUE))

# Print the updated dataframe
print(snow_processed)

# A tibble: 42,830 × 13
   Site   Year Date      Plot  Location Snow_cover Water_cover Land_cover
   <chr> <dbl> <chr>     <chr> <chr>         <dbl>       <dbl>      <dbl>
 1 barr   2011 29-May-11 brw1  b10              90           0         NA
 2 barr   2011 29-May-11 brw1  b12             100           0         NA
 3 barr   2011 29-May-11 brw1  b2               90           0         NA
 4 barr   2011 29-May-11 brw1  b4              100           0         NA
 5 barr   2011 29-May-11 brw1  b6               95           0         NA
 6 barr   2011 29-May-11 brw1  b8               95           0         NA
 7 barr   2011 29-May-11 brw1  d10              95           0         NA
 8 barr   2011 29-May-11 brw1  d12              90           0         NA
 9 barr   2011 29-May-11 brw1  d2               95           0         NA
10 barr   2011 29-May-11 brw1  d4               95           0         NA
# ℹ 42,820 more rows
# ℹ 5 more variables: Total_cover <chr>, Observer <chr>, Notes <chr>,
#   Snow_cover....as.numeric.Snow_cover. <lgl>, TotalCov <dbl>
…
